< GET /api/v2/spends/all?page=0 HTTP/1.1
< Host: gateway.niffler.dc:8090
< User-Agent: python-requests/2.32.4
< Accept-Encoding: gzip, deflate
< Accept: application/json
< Connection: keep-alive
< Authorization: Bearer eyJraWQiOiIyNWVlZTJjNC0wNjBiLTQxYmQtOGUyZC1kYTk5NGMzYWQxYmIiLCJhbGciOiJSUzI1NiJ9.eyJzdWIiOiJ0ZXN0MSIsImF1ZCI6ImNsaWVudCIsImF6cCI6ImNsaWVudCIsImF1dGhfdGltZSI6MTc1MTYzNTQ5MSwiaXNzIjoiaHR0cDovL2F1dGgubmlmZmxlci5kYzo5MDAwIiwiZXhwIjoxNzUxNjM3MjkxLCJpYXQiOjE3NTE2MzU0OTEsImp0aSI6IjRhZjg0N2YyLTAxOTAtNDlhNC1hMzQ1LTlmNmU4YzllOTMzZSIsInNpZCI6IkVsaG5Fd01SQUc0Ykd2X0szbmRGRm9OX1BkZDhCcmQxMm94VlNOQ1h5cUkifQ.JlDw4s4Tmw6X6u-ExLm6kQwLg3JsHvQOCldIrRPY4Yi9zR-0EtaszqcY81SSBUD9p-EmwmgCIOZQah8ltW_6LNe-clW62-J0uvdOVQwo_0iV6Y_P0d2FZKkdN6dsDVYYjGpUnkoqY6Eywyn3wus6rPZr7B2cud_ZsqL72RUDNOntkWucjIzaaMCrh6e4xLFHzp-9eXMDZF7P7UpbqEvF3xQhRDMrl45uXB7s-lbz23Me_jlKHjFYGZPR7JzSF3smXabJ8_Jck61_g80uPQfTF_nrK8Ix2gE66hgZb4FVSsBggmgh0nURSfXCxsTGJ-Syv7c1ukWtOgdJyROANfEaXA
< Content-Type: application/json
< 

> HTTP/1.1 200 
> Vary: Origin
> Vary: Access-Control-Request-Method
> Vary: Access-Control-Request-Headers
> X-Content-Type-Options: nosniff
> X-XSS-Protection: 0
> Cache-Control: no-cache, no-store, max-age=0, must-revalidate
> Pragma: no-cache
> Expires: 0
> X-Frame-Options: DENY
> Content-Type: application/json
> Transfer-Encoding: chunked
> Date: Fri, 04 Jul 2025 13:25:19 GMT
> Keep-Alive: timeout=60
> Connection: keep-alive
> 
{"content":[{"id":"e4a60872-5ba5-4c9f-a8a2-82d030f8e2e6","spendDate":"2025-06-29T21:00:00.000+00:00","category":{"id":"5714bee8-9fba-4343-9d27-6a49daf2166a","name":"category for search period","username":"test1","archived":false},"currency":"RUB","amount":8989.05,"description":"test_search_spend_by_ALL","username":"test1"},{"id":"be5f940a-6fbe-4428-9879-0431ffa402c2","spendDate":"2025-06-24T21:00:00.000+00:00","category":{"id":"0b904829-7d96-4a1b-9760-a891a5b9e0b8","name":"category 2","username":"test1","archived":false},"currency":"KZT","amount":3360.75,"description":"Area bad easy when right.","username":"test1"},{"id":"4eb1bbf6-9ad2-452e-aca6-4a2b70112123","spendDate":"2025-06-07T21:00:00.000+00:00","category":{"id":"0b904829-7d96-4a1b-9760-a891a5b9e0b8","name":"category 2","username":"test1","archived":false},"currency":"EUR","amount":1921.61,"description":"But scene add set drop doctor fish today.","username":"test1"},{"id":"edf48823-9c45-4289-85fd-7958bd86ac23","spendDate":"2025-06-06T21:00:00.000+00:00","category":{"id":"0b4c757a-fd51-42c7-ac14-55b032bbb900","name":"category 1","username":"test1","archived":false},"currency":"EUR","amount":1724.96,"description":"Deal people employee.","username":"test1"},{"id":"aeaa9b87-a76c-433b-846b-d3bea030f8e7","spendDate":"2025-06-06T21:00:00.000+00:00","category":{"id":"0b904829-7d96-4a1b-9760-a891a5b9e0b8","name":"category 2","username":"test1","archived":false},"currency":"EUR","amount":3262.89,"description":"Partner by pay meeting car.","username":"test1"},{"id":"491ab38d-e093-4f3a-8ef7-2aa472ac99da","spendDate":"2025-06-04T21:00:00.000+00:00","category":{"id":"0b904829-7d96-4a1b-9760-a891a5b9e0b8","name":"category 2","username":"test1","archived":false},"currency":"RUB","amount":207.65,"description":"Method key media ready.","username":"test1"},{"id":"fb8641c7-2d81-4c34-a2c0-09135756901a","spendDate":"2025-06-02T21:00:00.000+00:00","category":{"id":"0b4c757a-fd51-42c7-ac14-55b032bbb900","name":"category 1","username":"test1","archived":false},"currency":"KZT","amount":333.95,"description":"Catch indicate we data just. Meet reach its seat.","username":"test1"},{"id":"9c3e7e47-f9f1-40db-ba21-9376d54c6897","spendDate":"2025-05-24T21:00:00.000+00:00","category":{"id":"0b904829-7d96-4a1b-9760-a891a5b9e0b8","name":"category 2","username":"test1","archived":false},"currency":"RUB","amount":2285.2,"description":"Where matter that couple bit line.","username":"test1"},{"id":"5c93e83c-7363-43cf-b502-89cd0efb20c2","spendDate":"2025-05-20T21:00:00.000+00:00","category":{"id":"0b4c757a-fd51-42c7-ac14-55b032bbb900","name":"category 1","username":"test1","archived":false},"currency":"EUR","amount":3390.5,"description":"Blue employee hit think drive.","username":"test1"},{"id":"10e1a94a-2138-405c-8f3e-7ff8bfd88d5f","spendDate":"2025-05-15T21:00:00.000+00:00","category":{"id":"0b4c757a-fd51-42c7-ac14-55b032bbb900","name":"category 1","username":"test1","archived":false},"currency":"USD","amount":1596.11,"description":"According along those take no stock.","username":"test1"}],"number":0,"size":10,"totalElements":13,"pageable":{"pageNumber":0,"pageSize":10,"sort":{"empty":true,"sorted":false,"unsorted":true},"offset":0,"paged":true,"unpaged":false},"last":false,"totalPages":2,"sort":{"empty":true,"sorted":false,"unsorted":true},"first":true,"numberOfElements":10,"empty":false}