< GET /api/v2/spends/all?page=0 HTTP/1.1
< Host: gateway.niffler.dc:8090
< User-Agent: python-requests/2.32.4
< Accept-Encoding: gzip, deflate
< Accept: application/json
< Connection: keep-alive
< Authorization: Bearer eyJraWQiOiIyNWVlZTJjNC0wNjBiLTQxYmQtOGUyZC1kYTk5NGMzYWQxYmIiLCJhbGciOiJSUzI1NiJ9.eyJzdWIiOiJ0ZXN0MSIsImF1ZCI6ImNsaWVudCIsImF6cCI6ImNsaWVudCIsImF1dGhfdGltZSI6MTc1MTYzNTQ5MSwiaXNzIjoiaHR0cDovL2F1dGgubmlmZmxlci5kYzo5MDAwIiwiZXhwIjoxNzUxNjM3MjkxLCJpYXQiOjE3NTE2MzU0OTEsImp0aSI6IjRhZjg0N2YyLTAxOTAtNDlhNC1hMzQ1LTlmNmU4YzllOTMzZSIsInNpZCI6IkVsaG5Fd01SQUc0Ykd2X0szbmRGRm9OX1BkZDhCcmQxMm94VlNOQ1h5cUkifQ.JlDw4s4Tmw6X6u-ExLm6kQwLg3JsHvQOCldIrRPY4Yi9zR-0EtaszqcY81SSBUD9p-EmwmgCIOZQah8ltW_6LNe-clW62-J0uvdOVQwo_0iV6Y_P0d2FZKkdN6dsDVYYjGpUnkoqY6Eywyn3wus6rPZr7B2cud_ZsqL72RUDNOntkWucjIzaaMCrh6e4xLFHzp-9eXMDZF7P7UpbqEvF3xQhRDMrl45uXB7s-lbz23Me_jlKHjFYGZPR7JzSF3smXabJ8_Jck61_g80uPQfTF_nrK8Ix2gE66hgZb4FVSsBggmgh0nURSfXCxsTGJ-Syv7c1ukWtOgdJyROANfEaXA
< Content-Type: application/json
< 

> HTTP/1.1 200 
> Vary: Origin
> Vary: Access-Control-Request-Method
> Vary: Access-Control-Request-Headers
> X-Content-Type-Options: nosniff
> X-XSS-Protection: 0
> Cache-Control: no-cache, no-store, max-age=0, must-revalidate
> Pragma: no-cache
> Expires: 0
> X-Frame-Options: DENY
> Content-Type: application/json
> Transfer-Encoding: chunked
> Date: Fri, 04 Jul 2025 13:25:21 GMT
> Keep-Alive: timeout=60
> Connection: keep-alive
> 
{"content":[{"id":"81a5b0f1-6024-4a8f-8d9e-1825dd6b69f3","spendDate":"2025-06-24T21:00:00.000+00:00","category":{"id":"ef2ae910-64af-46db-84f3-ef28d5878d64","name":"category 2","username":"test1","archived":false},"currency":"KZT","amount":3360.75,"description":"Area bad easy when right.","username":"test1"},{"id":"0b19f526-343b-4739-9001-071905fa0475","spendDate":"2025-06-07T21:00:00.000+00:00","category":{"id":"ef2ae910-64af-46db-84f3-ef28d5878d64","name":"category 2","username":"test1","archived":false},"currency":"EUR","amount":1921.61,"description":"But scene add set drop doctor fish today.","username":"test1"},{"id":"8d933e21-98b4-4220-a272-9bf8cacb2ab2","spendDate":"2025-06-06T21:00:00.000+00:00","category":{"id":"24c42ba2-34c7-4f79-854c-6dbc1c899be3","name":"category 1","username":"test1","archived":false},"currency":"EUR","amount":1724.96,"description":"Deal people employee.","username":"test1"},{"id":"e8b87302-ff9a-442f-8667-c0513fde9e3c","spendDate":"2025-06-06T21:00:00.000+00:00","category":{"id":"ef2ae910-64af-46db-84f3-ef28d5878d64","name":"category 2","username":"test1","archived":false},"currency":"EUR","amount":3262.89,"description":"Partner by pay meeting car.","username":"test1"},{"id":"2c1c8afe-6c55-4364-b267-a698e2fb8466","spendDate":"2025-06-04T21:00:00.000+00:00","category":{"id":"ef2ae910-64af-46db-84f3-ef28d5878d64","name":"category 2","username":"test1","archived":false},"currency":"RUB","amount":207.65,"description":"Method key media ready.","username":"test1"},{"id":"13fbe1ac-9a0d-4ee1-9ce1-c36a99461974","spendDate":"2025-06-02T21:00:00.000+00:00","category":{"id":"24c42ba2-34c7-4f79-854c-6dbc1c899be3","name":"category 1","username":"test1","archived":false},"currency":"KZT","amount":333.95,"description":"Catch indicate we data just. Meet reach its seat.","username":"test1"},{"id":"d602de64-9da4-4875-ae3c-f210c523a4dc","spendDate":"2025-05-24T21:00:00.000+00:00","category":{"id":"ef2ae910-64af-46db-84f3-ef28d5878d64","name":"category 2","username":"test1","archived":false},"currency":"RUB","amount":2285.2,"description":"Where matter that couple bit line.","username":"test1"},{"id":"51e4e417-8960-4fea-8f63-30e1492da2ae","spendDate":"2025-05-20T21:00:00.000+00:00","category":{"id":"24c42ba2-34c7-4f79-854c-6dbc1c899be3","name":"category 1","username":"test1","archived":false},"currency":"EUR","amount":3390.5,"description":"Blue employee hit think drive.","username":"test1"},{"id":"cdf231ea-81be-477e-aabb-aa400587c391","spendDate":"2025-05-15T21:00:00.000+00:00","category":{"id":"24c42ba2-34c7-4f79-854c-6dbc1c899be3","name":"category 1","username":"test1","archived":false},"currency":"USD","amount":1596.11,"description":"According along those take no stock.","username":"test1"},{"id":"170eb80e-6b81-4a48-8d1c-cf6f57728e91","spendDate":"2025-05-12T21:00:00.000+00:00","category":{"id":"ef2ae910-64af-46db-84f3-ef28d5878d64","name":"category 2","username":"test1","archived":false},"currency":"KZT","amount":2684.57,"description":"Really rule wife growth create large face play.","username":"test1"}],"number":0,"size":10,"totalElements":12,"pageable":{"pageNumber":0,"pageSize":10,"sort":{"empty":true,"sorted":false,"unsorted":true},"offset":0,"paged":true,"unpaged":false},"last":false,"totalPages":2,"sort":{"empty":true,"sorted":false,"unsorted":true},"first":true,"numberOfElements":10,"empty":false}