< GET /api/v2/spends/all?page=0 HTTP/1.1
< Host: gateway.niffler.dc:8090
< User-Agent: python-requests/2.32.4
< Accept-Encoding: gzip, deflate
< Accept: application/json
< Connection: keep-alive
< Authorization: Bearer eyJraWQiOiIyNWVlZTJjNC0wNjBiLTQxYmQtOGUyZC1kYTk5NGMzYWQxYmIiLCJhbGciOiJSUzI1NiJ9.eyJzdWIiOiJ0ZXN0MSIsImF1ZCI6ImNsaWVudCIsImF6cCI6ImNsaWVudCIsImF1dGhfdGltZSI6MTc1MTYzNTQ5MSwiaXNzIjoiaHR0cDovL2F1dGgubmlmZmxlci5kYzo5MDAwIiwiZXhwIjoxNzUxNjM3MjkxLCJpYXQiOjE3NTE2MzU0OTEsImp0aSI6IjRhZjg0N2YyLTAxOTAtNDlhNC1hMzQ1LTlmNmU4YzllOTMzZSIsInNpZCI6IkVsaG5Fd01SQUc0Ykd2X0szbmRGRm9OX1BkZDhCcmQxMm94VlNOQ1h5cUkifQ.JlDw4s4Tmw6X6u-ExLm6kQwLg3JsHvQOCldIrRPY4Yi9zR-0EtaszqcY81SSBUD9p-EmwmgCIOZQah8ltW_6LNe-clW62-J0uvdOVQwo_0iV6Y_P0d2FZKkdN6dsDVYYjGpUnkoqY6Eywyn3wus6rPZr7B2cud_ZsqL72RUDNOntkWucjIzaaMCrh6e4xLFHzp-9eXMDZF7P7UpbqEvF3xQhRDMrl45uXB7s-lbz23Me_jlKHjFYGZPR7JzSF3smXabJ8_Jck61_g80uPQfTF_nrK8Ix2gE66hgZb4FVSsBggmgh0nURSfXCxsTGJ-Syv7c1ukWtOgdJyROANfEaXA
< Content-Type: application/json
< 

> HTTP/1.1 200 
> Vary: Origin
> Vary: Access-Control-Request-Method
> Vary: Access-Control-Request-Headers
> X-Content-Type-Options: nosniff
> X-XSS-Protection: 0
> Cache-Control: no-cache, no-store, max-age=0, must-revalidate
> Pragma: no-cache
> Expires: 0
> X-Frame-Options: DENY
> Content-Type: application/json
> Transfer-Encoding: chunked
> Date: Fri, 04 Jul 2025 13:25:17 GMT
> Keep-Alive: timeout=60
> Connection: keep-alive
> 
{"content":[{"id":"f6abf671-8830-4b96-be1e-3745cbe5fcc5","spendDate":"2025-06-24T21:00:00.000+00:00","category":{"id":"ed6f0171-12c3-49fc-9ec3-8c0909f047ac","name":"category 2","username":"test1","archived":false},"currency":"KZT","amount":3360.75,"description":"Area bad easy when right.","username":"test1"},{"id":"44e4fce2-1d30-44c5-8f98-97f3564c3edd","spendDate":"2025-06-07T21:00:00.000+00:00","category":{"id":"ed6f0171-12c3-49fc-9ec3-8c0909f047ac","name":"category 2","username":"test1","archived":false},"currency":"EUR","amount":1921.61,"description":"But scene add set drop doctor fish today.","username":"test1"},{"id":"84bba0a3-cf4d-4919-9e59-0fe9e6123ef7","spendDate":"2025-06-06T21:00:00.000+00:00","category":{"id":"5698789e-8c73-45f8-9c5b-3455b6046545","name":"category 1","username":"test1","archived":false},"currency":"EUR","amount":1724.96,"description":"Deal people employee.","username":"test1"},{"id":"964f5645-2ef1-4ed5-ad74-4419def2e351","spendDate":"2025-06-06T21:00:00.000+00:00","category":{"id":"ed6f0171-12c3-49fc-9ec3-8c0909f047ac","name":"category 2","username":"test1","archived":false},"currency":"EUR","amount":3262.89,"description":"Partner by pay meeting car.","username":"test1"},{"id":"43fe1e97-6a45-42b6-9c48-b6c730e43917","spendDate":"2025-06-04T21:00:00.000+00:00","category":{"id":"ed6f0171-12c3-49fc-9ec3-8c0909f047ac","name":"category 2","username":"test1","archived":false},"currency":"RUB","amount":207.65,"description":"Method key media ready.","username":"test1"},{"id":"e20a85c0-04eb-4452-b561-6a14abbc6b07","spendDate":"2025-06-02T21:00:00.000+00:00","category":{"id":"5698789e-8c73-45f8-9c5b-3455b6046545","name":"category 1","username":"test1","archived":false},"currency":"KZT","amount":333.95,"description":"Catch indicate we data just. Meet reach its seat.","username":"test1"},{"id":"4fab05ce-e99c-4461-be22-7317040a132e","spendDate":"2025-05-24T21:00:00.000+00:00","category":{"id":"ed6f0171-12c3-49fc-9ec3-8c0909f047ac","name":"category 2","username":"test1","archived":false},"currency":"RUB","amount":2285.2,"description":"Where matter that couple bit line.","username":"test1"},{"id":"3d1eb7c1-242d-4c61-a6a4-a9ed2e40ceec","spendDate":"2025-05-20T21:00:00.000+00:00","category":{"id":"5698789e-8c73-45f8-9c5b-3455b6046545","name":"category 1","username":"test1","archived":false},"currency":"EUR","amount":3390.5,"description":"Blue employee hit think drive.","username":"test1"},{"id":"cbe12829-4cac-48a6-918d-46607c58a259","spendDate":"2025-05-15T21:00:00.000+00:00","category":{"id":"5698789e-8c73-45f8-9c5b-3455b6046545","name":"category 1","username":"test1","archived":false},"currency":"USD","amount":1596.11,"description":"According along those take no stock.","username":"test1"},{"id":"a8be697a-247b-43c6-9ae8-e1ad0b75f10f","spendDate":"2025-05-12T21:00:00.000+00:00","category":{"id":"ed6f0171-12c3-49fc-9ec3-8c0909f047ac","name":"category 2","username":"test1","archived":false},"currency":"KZT","amount":2684.57,"description":"Really rule wife growth create large face play.","username":"test1"}],"number":0,"size":10,"totalElements":12,"pageable":{"pageNumber":0,"pageSize":10,"sort":{"empty":true,"sorted":false,"unsorted":true},"offset":0,"paged":true,"unpaged":false},"last":false,"totalPages":2,"sort":{"empty":true,"sorted":false,"unsorted":true},"first":true,"numberOfElements":10,"empty":false}